\contentsline {chapter}{\numberline {1}File Index}{1}
\contentsline {section}{\numberline {1.1}File List}{1}
\contentsline {chapter}{\numberline {2}File Documentation}{3}
\contentsline {section}{\numberline {2.1}.dep.\discretionary {-}{}{}inc File Reference}{3}
\contentsline {section}{\numberline {2.2}Klient\discretionary {-}{}{}Mail.\discretionary {-}{}{}c File Reference}{3}
\contentsline {subsection}{\numberline {2.2.1}Macro Definition Documentation}{3}
\contentsline {subsubsection}{\numberline {2.2.1.1}M\discretionary {-}{}{}A\discretionary {-}{}{}X\discretionary {-}{}{}B\discretionary {-}{}{}U\discretionary {-}{}{}F}{3}
\contentsline {subsection}{\numberline {2.2.2}Function Documentation}{3}
\contentsline {subsubsection}{\numberline {2.2.2.1}blad}{3}
\contentsline {subsubsection}{\numberline {2.2.2.2}main}{4}
\contentsline {part}{Index}{4}
