\relax 
\@writefile{toc}{\contentsline {chapter}{\numberline {1}File Index}{1}}
\@writefile{lof}{\addvspace {10\p@ }}
\@writefile{lot}{\addvspace {10\p@ }}
\@writefile{toc}{\contentsline {section}{\numberline {1.1}File List}{1}}
\@writefile{toc}{\contentsline {chapter}{\numberline {2}File Documentation}{3}}
\@writefile{lof}{\addvspace {10\p@ }}
\@writefile{lot}{\addvspace {10\p@ }}
\@writefile{toc}{\contentsline {section}{\numberline {2.1}.dep.\discretionary {-}{}{}inc File Reference}{3}}
\newlabel{_8dep_8inc}{{2.1}{3}}
\@writefile{toc}{\contentsline {section}{\numberline {2.2}Klient\discretionary {-}{}{}Mail.\discretionary {-}{}{}c File Reference}{3}}
\newlabel{KlientMail_8c}{{2.2}{3}}
\@writefile{toc}{\contentsline {subsection}{\numberline {2.2.1}Macro Definition Documentation}{3}}
\@writefile{toc}{\contentsline {subsubsection}{\numberline {2.2.1.1}M\discretionary {-}{}{}A\discretionary {-}{}{}X\discretionary {-}{}{}B\discretionary {-}{}{}U\discretionary {-}{}{}F}{3}}
\newlabel{KlientMail_8c_ad7871643c05865c80f5d8050aead2b57}{{2.2.1.1}{3}}
\@writefile{toc}{\contentsline {subsection}{\numberline {2.2.2}Function Documentation}{3}}
\@writefile{toc}{\contentsline {subsubsection}{\numberline {2.2.2.1}blad}{3}}
\newlabel{KlientMail_8c_ab435a8a55abb47c157c2c614c11856e3}{{2.2.2.1}{3}}
\gdef \LT@i {\LT@entry 
    {1}{78.18367pt}\LT@entry 
    {1}{380.5249pt}}
\gdef \LT@ii {\LT@entry 
    {1}{78.18367pt}\LT@entry 
    {1}{380.5249pt}}
\@writefile{toc}{\contentsline {subsubsection}{\numberline {2.2.2.2}main}{4}}
\newlabel{KlientMail_8c_a3c04138a5bfe5d72780bb7e82a18e627}{{2.2.2.2}{4}}
\@writefile{toc}{\contentsline {part}{Index}{4}}
