\relax 
\providecommand\hyper@newdestlabel[2]{}
\providecommand\HyperFirstAtBeginDocument{\AtBeginDocument}
\HyperFirstAtBeginDocument{\ifx\hyper@anchor\@undefined
\global\let\oldcontentsline\contentsline
\gdef\contentsline#1#2#3#4{\oldcontentsline{#1}{#2}{#3}}
\global\let\oldnewlabel\newlabel
\gdef\newlabel#1#2{\newlabelxx{#1}#2}
\gdef\newlabelxx#1#2#3#4#5#6{\oldnewlabel{#1}{{#2}{#3}}}
\AtEndDocument{\ifx\hyper@anchor\@undefined
\let\contentsline\oldcontentsline
\let\newlabel\oldnewlabel
\fi}
\fi}
\global\let\hyper@last\relax 
\gdef\HyperFirstAtBeginDocument#1{#1}
\providecommand\HyField@AuxAddToFields[1]{}
\providecommand\HyField@AuxAddToCoFields[2]{}
\@writefile{toc}{\contentsline {chapter}{\numberline {1}File Index}{1}{chapter.1}}
\@writefile{lof}{\addvspace {10\p@ }}
\@writefile{lot}{\addvspace {10\p@ }}
\@writefile{toc}{\contentsline {section}{\numberline {1.1}File List}{1}{section.1.1}}
\gdef \LT@i {\LT@entry 
    {1}{78.18367pt}\LT@entry 
    {1}{380.5249pt}}
\@writefile{toc}{\contentsline {chapter}{\numberline {2}File Documentation}{3}{chapter.2}}
\@writefile{lof}{\addvspace {10\p@ }}
\@writefile{lot}{\addvspace {10\p@ }}
\@writefile{toc}{\contentsline {section}{\numberline {2.1}.dep.\discretionary {-}{}{}inc File Reference}{3}{section.2.1}}
\newlabel{_8dep_8inc}{{2.1}{3}{.dep.\-inc File Reference}{section.2.1}{}}
\@writefile{toc}{\contentsline {section}{\numberline {2.2}Server\discretionary {-}{}{}Mail.\discretionary {-}{}{}c File Reference}{3}{section.2.2}}
\newlabel{ServerMail_8c}{{2.2}{3}{Server\-Mail.\-c File Reference}{section.2.2}{}}
\@writefile{toc}{\contentsline {subsection}{\numberline {2.2.1}Function Documentation}{3}{subsection.2.2.1}}
\@writefile{toc}{\contentsline {subsubsection}{\numberline {2.2.1.1}main}{3}{subsubsection.2.2.1.1}}
\newlabel{ServerMail_8c_a3c04138a5bfe5d72780bb7e82a18e627}{{2.2.1.1}{3}{main}{subsubsection.2.2.1.1}{}}
\@writefile{toc}{\contentsline {subsubsection}{\numberline {2.2.1.2}sendemail}{3}{subsubsection.2.2.1.2}}
\newlabel{ServerMail_8c_aafad73ec7f618fba68ba165c5c36f54a}{{2.2.1.2}{3}{sendemail}{subsubsection.2.2.1.2}{}}
\@writefile{toc}{\contentsline {subsubsection}{\numberline {2.2.1.3}sendemail}{3}{subsubsection.2.2.1.3}}
\newlabel{ServerMail_8c_ac18428ad46708832756496c3c9b22e7f}{{2.2.1.3}{3}{sendemail}{subsubsection.2.2.1.3}{}}
\gdef \LT@ii {\LT@entry 
    {1}{78.18367pt}\LT@entry 
    {1}{380.5249pt}}
\@writefile{toc}{\contentsline {part}{Index}{4}{table.2.2}}
