\contentsline {chapter}{\numberline {1}File Index}{1}{chapter.1}
\contentsline {section}{\numberline {1.1}File List}{1}{section.1.1}
\contentsline {chapter}{\numberline {2}File Documentation}{3}{chapter.2}
\contentsline {section}{\numberline {2.1}.dep.\discretionary {-}{}{}inc File Reference}{3}{section.2.1}
\contentsline {section}{\numberline {2.2}Server\discretionary {-}{}{}Mail.\discretionary {-}{}{}c File Reference}{3}{section.2.2}
\contentsline {subsection}{\numberline {2.2.1}Function Documentation}{3}{subsection.2.2.1}
\contentsline {subsubsection}{\numberline {2.2.1.1}main}{3}{subsubsection.2.2.1.1}
\contentsline {subsubsection}{\numberline {2.2.1.2}sendemail}{3}{subsubsection.2.2.1.2}
\contentsline {subsubsection}{\numberline {2.2.1.3}sendemail}{3}{subsubsection.2.2.1.3}
\contentsline {part}{Index}{4}{table.2.2}
